Commits Details :
<a href = "https://gitlab.com/zeptoa/botmanager/-/commit/40809d47a90cb34e762ab0185bfd72df39ce8d3a">Merge branch 'server' into 'main'</a> on 2021-07-11T11:39:55+00:00

<a href = "https://gitlab.com/zeptoa/botmanager/-/commit/62113144e3b9220c3e919347b3c1ffeb88658db9">server side changes</a> on 2021-07-11T15:33:04+04:00

<a href = "https://gitlab.com/zeptoa/botmanager/-/commit/6c78a6c1eb35ea177ef739f3f1e10f8eb1074783">Update README.md</a> on 2021-07-11T09:12:49+00:00
